Take-home_Ex2 – ISSS608-Visual Analytics
…
ranger: Implements an efficient and fast Random Forest algorithm suitable for large datasets.

htmlwidgets: Enables interactive visualisations to be exported as HTML components for viewing in browsers or Shiny applications.

Import Package

pacman::p_load(dplyr, ggstatsplot, tidyverse,ggrepel, patchwork, janitor,colorspace,ggstatsplot,ggdist,ggridges,FunnelPlotR,knitr,gganimate,gifski,gapminder,ggthemes, hrbrthemes,tidyverse,readxl, rpart, visNetwork, visTree,rpart.plot, htmlwidgets, caret,ranger,patchwork,Metrics)

2.5 Load Data

customer_data <- read_csv("data/customer_data.csv")
customer_data

# A tibble: 48,723 × 54
   customer_id   age gender location   income_bracket occupation education_level
         <dbl> <dbl> <chr>  <chr>      <chr>          <chr>      <chr>          
 1    93716481    44 Male   Pereira, … Very High      Engineer   Master         
 2    49020929    44 Male   Cali, Val… Medium         Construct… Bachelor       
 3    52690950    45 Male   Barranqui… High           Construct… Bachelor       
 4    23199751    45 Male   Bogotá, C… High           Electrici… High School    
 5    61997066    44 Female Bogotá, C… Medium         Cleaner    Bachelor       
 6    85721098    45 Female Bogotá, C… Medium         Architect  PhD            
 7    97779724    44 Male   Bogotá, C… Medium         Cleaner    Master         
 8    65536017    44 Male   Bogotá, C… Medium         Artist     Bachelor       
 9    22020116    45 Male   Cartagena… Medium         Firefight… Master         
10    14024733    44 Male   Bogotá, C… Medium         Journalist Bachelor       
# ℹ 48,713 more rows
# ℹ 47 more variables: marital_status <chr>, household_size <dbl>,
#   acquisition_channel <chr>, customer_segment <chr>, savings_account <lgl>,
#   credit_card <lgl>, personal_loan <lgl>, investment_account <lgl>,
#   insurance_product <lgl>, active_products <dbl>, app_logins_frequency <dbl>,
#   feature_usage_diversity <dbl>, bill_payment_user <lgl>,
#   auto_savings_enabled <lgl>, credit_utilization_ratio <dbl>, …

transactions_data <- read_csv("data/transactions_data.csv")
transactions_data

# A tibble: 3,159,157 × 4
   customer_id date        amount type      
         <dbl> <date>       <dbl> <chr>     
 1    93716481 2023-11-23 1262800 Transfer  
 2    93716481 2023-01-05  928900 Withdrawal
 3    93716481 2023-11-05 1683100 Payment   
 4    93716481 2023-04-14 4507350 Payment   
 5    93716481 2023-08-04 2096150 Payment   
 6    93716481 2023-03-29 2124050 Payment   
 7    93716481 2023-03-18 1108750 Transfer  
 8    93716481 2023-04-25  472800 Transfer  
 9    93716481 2023-05-28 6573600 Transfer  
10    93716481 2023-08-07 3171800 Withdrawal
# ℹ 3,159,147 more rows
…
