Take-home_Ex1 – ISSS608-Visual Analytics
…
readxl: To read Excel files (.xls and .xlsx) into R

Import Package

pacman::p_load(ggstatsplot, tidyverse,ggrepel, patchwork, janitor,colorspaces,ggstatsplot,ggdist,ggridges,FunnelPlotR,knitr,gganimate,gifski,gapminder,
               ggthemes, hrbrthemes,
               tidyverse,readxl)

1.5 Import Data

raw <- read_excel("data/Database paper.xlsx") %>%
  janitor::clean_names()
raw

# A tibble: 2,170 × 22
    year gender policy_stu minority_stu poor_stu father_edu mother_edu
   <dbl>  <dbl>      <dbl>        <dbl>    <dbl>      <dbl>      <dbl>
 1     5      2          2            2        2          4          4
 2     5      1          2            2        2          3          3
 3     5      2          2            2        2          4          4
 4     5      2          2            2        2          5          4
 5     5      1          1            2        2          2          3
 6     5      2          2            2        2          5          5
 7     5      2          2            2        2          6          5
 8     5      2          2            2        2          5          4
 9     5      2          2            2        2          5          5
10     5      2          2            2        2          5          4
# ℹ 2,160 more rows
# ℹ 15 more variables: father_occupation <dbl>, mother_occupation <dbl>,
#   time_friends <dbl>, time_socical_media <dbl>, time_studying <dbl>,
#   gpa <dbl>, adapt_learning_uni <dbl>, study_methods <dbl>,
#   support_of_uni <dbl>, support_of_lec <dbl>, facilitie_uni <dbl>,
#   quality_lecturer <dbl>, training_curriculum <dbl>, competitive_class <dbl>,
#   infuence_f_friends <dbl>
…
1.6.2 Check for duplication

By using the duplicated function,

raw[duplicated(raw),]

# A tibble: 226 × 22
    year gender policy_stu minority_stu poor_stu father_edu mother_edu
   <dbl>  <dbl>      <dbl>        <dbl>    <dbl>      <dbl>      <dbl>
 1     5      2          2            2        2          5          5
 2     5      1          2            2        2          5          5
 3     5      1          2            2        2          3          3
 4     5      2          2            2        2          4          3
 5     5      2          2            2        2          3          3
 6     5      2          2            2        2          6          6
 7     5      2          2            2        2          5          5
 8     5      2          2            2        2          5          5
 9     5      2          2            2        2          5          5
10     5      2          1            2        2          4          3
# ℹ 216 more rows
# ℹ 15 more variables: father_occupation <dbl>, mother_occupation <dbl>,
#   time_friends <dbl>, time_socical_media <dbl>, time_studying <dbl>,
#   gpa <dbl>, adapt_learning_uni <dbl>, study_methods <dbl>,
#   support_of_uni <dbl>, support_of_lec <dbl>, facilitie_uni <dbl>,
#   quality_lecturer <dbl>, training_curriculum <dbl>, competitive_class <dbl>,
#   infuence_f_friends <dbl>
…
